// Jest Snapshot v1, https://goo.gl/fbAQLP

exports[`Renders the user edit form does not show the massage if isSuccess in store is false 1`] = `null`;

exports[`Renders the user edit form shows success message if isSuccess in store is true 1`] = `null`;

exports[`Renders the user edit form user edit form dumb component matches the snapshot 1`] = `
<form
  className="form-edit-user"
  onSubmit={[Function]}
>
  <div
    className="form-group has-feedback"
  >
    <label
      className="control-label"
      htmlFor="name"
    >
      Name
    </label>
    <input
      className="form-control"
      id="name"
      name="name"
      onChange={[Function]}
      placeholder="Enter text"
      type="text"
      value="Pete"
    />
  </div>
  <div
    className="form-group has-feedback"
  >
    <label
      className="control-label"
      htmlFor="surname"
    >
      Surname
    </label>
    <input
      className="form-control"
      id="surname"
      name="surname"
      onChange={[Function]}
      type="text"
      value="Willson"
    />
  </div>
  <div
    className="form-group"
  >
    <label
      className="control-label"
      htmlFor="gender"
    >
      Gender
    </label>
    <select
      className="form-control"
      defaultValue="male"
      id="gender"
      name="gender"
      onChange={[Function]}
      placeholder="select"
      type={undefined}
    >
      <option
        value="male"
      >
        male
      </option>
      <option
        value="female"
      >
        female
      </option>
      <option
        value="other"
      >
        other
      </option>
      <option
        value="social justice warrior"
      >
        social justice warrior
      </option>
    </select>
  </div>
  <div
    className="form-group has-feedback"
  >
    <label
      className="control-label"
      htmlFor="name"
    >
      Region
    </label>
    <input
      className="form-control"
      id="name"
      name="region"
      onChange={[Function]}
      type="text"
      value="North Pole"
    />
  </div>
  <button
    className="btn btn-success"
    disabled={false}
    type="submit"
  >
    Save
  </button>
</form>
`;
